{
    "Compartments": {
        ".CODE_REGION_0_": {
            "Data": [],
            "Peripherals": [],
            "Priv": false
        },
        ".CODE_REGION_1_": {
            "Data": [
                ".DATA_REGION_0_"
            ],
            "Peripherals": [],
            "Priv": false
        },
        ".CODE_REGION_2_": {
            "Data": [],
            "Peripherals": [],
            "Priv": false
        },
        ".CODE_REGION_3_": {
            "Data": [],
            "Peripherals": [],
            "Priv": false
        },
        ".CODE_REGION_4_": {
            "Data": [],
            "Peripherals": [],
            "Priv": false
        },
        ".IRQ_CODE_REGION": {
            "Data": [],
            "Peripherals": [],
            "Priv": false
        }
    },
    "MPU_CONFIG": {
        ".CODE_REGION_0_": {
            "Addrs": [
                134217744,
                536870929,
                134742034,
                0,
                0,
                0,
                0,
                0
            ],
            "Attrs": [
                100794405,
                319160355,
                100794387,
                0,
                0,
                0,
                0,
                0
            ]
        },
        ".CODE_REGION_1_": {
            "Addrs": [
                134217744,
                536870929,
                134742034,
                0,
                0,
                0,
                0,
                0
            ],
            "Attrs": [
                100794405,
                319160355,
                100794387,
                0,
                0,
                0,
                0,
                0
            ]
        },
        ".CODE_REGION_2_": {
            "Addrs": [
                134217744,
                536870929,
                134742034,
                0,
                0,
                0,
                0,
                0
            ],
            "Attrs": [
                100794405,
                319160355,
                100794387,
                0,
                0,
                0,
                0,
                0
            ]
        },
        ".CODE_REGION_3_": {
            "Addrs": [
                134217744,
                536870929,
                134742034,
                0,
                0,
                0,
                0,
                0
            ],
            "Attrs": [
                100794405,
                319160355,
                100794387,
                0,
                0,
                0,
                0,
                0
            ]
        },
        ".CODE_REGION_4_": {
            "Addrs": [
                134217744,
                536870929,
                134742034,
                0,
                0,
                0,
                0,
                0
            ],
            "Attrs": [
                100794405,
                319160355,
                100794387,
                0,
                0,
                0,
                0,
                0
            ]
        },
        ".IRQ_CODE_REGION": {
            "Addrs": [
                134217744,
                536870929,
                134742034,
                0,
                0,
                0,
                0,
                0
            ],
            "Attrs": [
                100794405,
                319160355,
                100794387,
                0,
                0,
                0,
                0,
                0
            ]
        },
        "__hexbox_default": {
            "Addrs": null,
            "Attrs": null
        }
    },
    "NUM_MPU_REGIONS": 8,
    "Regions": {
        ".CODE_REGION_0_": {
            "Align": 1,
            "Objects": [
                "lcd_setCursor",
                "lcd_begin",
                "lcd_clear",
                "lcd_print"
            ],
            "Size": 0,
            "Type": "Code"
        },
        ".CODE_REGION_1_": {
            "Align": 1,
            "Objects": [
                "bolus",
                "processSerial",
                "updateScreen",
                "readSerial",
                "get_key",
                "main",
                "doKeyAction",
                "checkTriggers",
                "setup",
                "forward_target",
                "readKey",
                "loop"
            ],
            "Size": 0,
            "Type": "Code"
        },
        ".CODE_REGION_2_": {
            "Align": 1,
            "Objects": [
                "Serial_begin",
                "digitalWrite",
                "analogRead",
                "Serial_available",
                "millis",
                "usecs",
                "digitalRead",
                "toUInt",
                "Serial_read",
                "Serial_write",
                "pinMode",
                "delayMicroseconds"
            ],
            "Size": 0,
            "Type": "Code"
        },
        ".CODE_REGION_3_": {
            "Align": 1,
            "Objects": [
                "led_off",
                "led_on"
            ],
            "Size": 0,
            "Type": "Code"
        },
        ".CODE_REGION_4_": {
            "Align": 1,
            "Objects": [
                "ict_checking",
                "error_found"
            ],
            "Size": 0,
            "Type": "Code"
        },
        ".DATA_REGION_0_": {
            "Align": 1,
            "Objects": [
                "triggerPin",
                "keyDebounce",
                "bigTriggerPin",
                "prevKey",
                "motorStepPin",
                "mLBolusStep",
                "motorDirPin",
                "mLBolus",
                "mLUsed",
                "keyRepeatDelay",
                "lcd",
                "NUM_KEYS",
                "mLBolusStepIdx",
                "adc_key_val",
                "serialStrReady",
                "prevBigTrigger",
                "prevTrigger",
                "ustepsPerML",
                "key",
                "serialStr",
                "mLBigBolus",
                "serialStrLen",
                "mLBolusSteps",
                "lastKeyRepeatAt",
                "adc_key_in",
                "uiState"
            ],
            "Size": 0,
            "Type": "Data"
        },
        ".IRQ_CODE_REGION": {
            "Align": 1,
            "Objects": [],
            "Size": 0,
            "Type": "Code"
        }
    }
}